…
Practical Example: Nested Gapminder

Finally, we are going to see a practical example of how to combine a nested dataset with the purrr functionals to exploit all the power of both solutions. But first of all, what is a nested data frame? Basically, it is a data frame that has one or more columns made up of lists of data frames. To make the concept clear, let’s look at an example:

(gap_nested <- repurrrsive::gap_nested)

## # A tibble: 142 x 3
##    country     continent data             
##    <fct>       <fct>     <list>           
##  1 Afghanistan Asia      <tibble [12 x 4]>
##  2 Albania     Europe    <tibble [12 x 4]>
##  3 Algeria     Africa    <tibble [12 x 4]>
##  4 Angola      Africa    <tibble [12 x 4]>
##  5 Argentina   Americas  <tibble [12 x 4]>
##  6 Australia   Oceania   <tibble [12 x 4]>
##  7 Austria     Europe    <tibble [12 x 4]>
##  8 Bahrain     Asia      <tibble [12 x 4]>
##  9 Bangladesh  Asia      <tibble [12 x 4]>
## 10 Belgium     Europe    <tibble [12 x 4]>
## # ... with 132 more rows
…
Finally, we are going to calculate the rsq for each model from the fitted values and the observed values of life expectancy. As for each country and continent we will obtain a single value, we will use the function tidy::unnest() at the end to be able to directly visualize this value (and that it is not nested in a list in the column ‘rsq’ that we are going to create) :

gap_nested <- gap_nested %>%
              mutate(rsq = map2(fitted, 
                                data, 
                                function(.fitted, .data) {yardstick::rsq_vec(as.vector(.fitted), .data$lifeExp)})) %>%
              tidyr::unnest(rsq)

gap_nested

## # A tibble: 142 x 6
##    country     continent data              arima    fitted      rsq
##    <fct>       <fct>     <list>            <list>   <list>    <dbl>
##  1 Afghanistan Asia      <tibble [12 x 4]> <fit[+]> <ts [12]> 0.988
##  2 Albania     Europe    <tibble [12 x 4]> <fit[+]> <ts [12]> 0.938
##  3 Algeria     Africa    <tibble [12 x 4]> <fit[+]> <ts [12]> 0.980
##  4 Angola      Africa    <tibble [12 x 4]> <fit[+]> <ts [12]> 0.981
##  5 Argentina   Americas  <tibble [12 x 4]> <fit[+]> <ts [12]> 0.995
##  6 Australia   Oceania   <tibble [12 x 4]> <fit[+]> <ts [12]> 0.984
##  7 Austria     Europe    <tibble [12 x 4]> <fit[+]> <ts [12]> 0.986
##  8 Bahrain     Asia      <tibble [12 x 4]> <fit[+]> <ts [12]> 0.982
##  9 Bangladesh  Asia      <tibble [12 x 4]> <fit[+]> <ts [12]> 0.994
## 10 Belgium     Europe    <tibble [12 x 4]> <fit[+]> <ts [12]> 0.986
## # ... with 132 more rows
…
