…
Ejemplo Práctico: Nested Gapminder

Finalmente, vamos a ver un ejemplo práctico de como combinar un dataset anidado (nested) con los funcionales de purrr para explotar toda la potencia de ambas soluciones. Pero en primer lugar, qué es un data frame anidado? Básicamente, es un data frame que tiene una o más columnas formadas por listas de data frames. Para que quede claro el concepto, veamos un ejemplo:

(gap_nested <- repurrrsive::gap_nested)

## # A tibble: 142 x 3
##    country     continent data             
##    <fct>       <fct>     <list>           
##  1 Afghanistan Asia      <tibble [12 x 4]>
##  2 Albania     Europe    <tibble [12 x 4]>
##  3 Algeria     Africa    <tibble [12 x 4]>
##  4 Angola      Africa    <tibble [12 x 4]>
##  5 Argentina   Americas  <tibble [12 x 4]>
##  6 Australia   Oceania   <tibble [12 x 4]>
##  7 Austria     Europe    <tibble [12 x 4]>
##  8 Bahrain     Asia      <tibble [12 x 4]>
##  9 Bangladesh  Asia      <tibble [12 x 4]>
## 10 Belgium     Europe    <tibble [12 x 4]>
## # ... with 132 more rows
…
Finalmente, vamos a calcular el rsq para cada modelo a partir de los fitted values y de los valores observados de la esperanza de vida. Como para cada país y continente obtendremos un único valor, usaremos la función tidyr::unnest() al final para poder visualizar directamente este valor (y que no quede anidado en una lista en la columna ‘rsq’ que vamos a crear):

gap_nested <- gap_nested %>%
              mutate(rsq = map2(fitted, 
                                data, 
                                function(.fitted, .data) {yardstick::rsq_vec(as.vector(.fitted), .data$lifeExp)})) %>%
              tidyr::unnest(rsq)

gap_nested

## # A tibble: 142 x 6
##    country     continent data              arima    fitted      rsq
##    <fct>       <fct>     <list>            <list>   <list>    <dbl>
##  1 Afghanistan Asia      <tibble [12 x 4]> <fit[+]> <ts [12]> 0.988
##  2 Albania     Europe    <tibble [12 x 4]> <fit[+]> <ts [12]> 0.938
##  3 Algeria     Africa    <tibble [12 x 4]> <fit[+]> <ts [12]> 0.980
##  4 Angola      Africa    <tibble [12 x 4]> <fit[+]> <ts [12]> 0.981
##  5 Argentina   Americas  <tibble [12 x 4]> <fit[+]> <ts [12]> 0.995
##  6 Australia   Oceania   <tibble [12 x 4]> <fit[+]> <ts [12]> 0.984
##  7 Austria     Europe    <tibble [12 x 4]> <fit[+]> <ts [12]> 0.986
##  8 Bahrain     Asia      <tibble [12 x 4]> <fit[+]> <ts [12]> 0.982
##  9 Bangladesh  Asia      <tibble [12 x 4]> <fit[+]> <ts [12]> 0.994
## 10 Belgium     Europe    <tibble [12 x 4]> <fit[+]> <ts [12]> 0.986
## # ... with 132 more rows
…
