…
Para coincidir con la semántica dplyr, mutate () no se modifica en su lugar de forma predeterminada. Esto significa que la mayoría de las expresiones que involucran mutate () deben hacer una copia que no sería necesaria si estuviera usando data.table directamente. (Puede optar por este comportamiento en lazy_dt () con immutable = FALSE).

¿Cómo usar dtplyr?

library(data.table)
library(dtplyr)
library(dplyr, warn.conflicts = FALSE)

data('mtcars')

El primer paso es crear una tabla diferida con la función lazy_dt ():

(mtcars_lazy<-lazy_dt(mtcars))

## Source: local data table [32 x 11]
## Call:   `_DT1`
## 
##     mpg   cyl  disp    hp  drat    wt  qsec    vs    am  gear  carb
##   <dbl> <dbl> <dbl> <dbl> <dbl> <dbl> <dbl> <dbl> <dbl> <dbl> <dbl>
## 1  21       6   160   110  3.9   2.62  16.5     0     1     4     4
## 2  21       6   160   110  3.9   2.88  17.0     0     1     4     4
## 3  22.8     4   108    93  3.85  2.32  18.6     1     1     4     1
## 4  21.4     6   258   110  3.08  3.22  19.4     1     0     3     1
## 5  18.7     8   360   175  3.15  3.44  17.0     0     0     3     2
## 6  18.1     6   225   105  2.76  3.46  20.2     1     0     3     1
## # ... with 26 more rows
## 
## # Use as.data.table()/as.data.frame()/as_tibble() to access results

Puede ver en ‘Call’ el código traducido a la sintaxis data.table. Probemos la traducción de algún verbo típico de dplyr:

mtcars_lazy %>%
  filter(cyl == 6) %>%
  select(c(mpg, cyl))

## Source: local data table [7 x 2]
## Call:   `_DT1`[cyl == 6, .(mpg, cyl)]
## 
##     mpg   cyl
##   <dbl> <dbl>
## 1  21       6
## 2  21       6
## 3  21.4     6
## 4  18.1     6
## 5  19.2     6
## 6  17.8     6
## # ... with 1 more row
## 
## # Use as.data.table()/as.data.frame()/as_tibble() to access results
…
